Name: SNET_Adam_L1LOSS_5000EX_B20_DILATFLOWNET_LR_0001
Epocs: 4
Batches: 250
Learning Rate: 1e-05
Date: 2019-06-08-22-57-57
train test 
15.952463400363921,20.541269302368164
14.647213542461396,17.796274185180664
12.258118188381195,12.254581451416016
10.409913057088852,7.613688945770264
9.231829369068146,5.187815189361572
8.823848417401313,5.556081771850586
8.702777081727982,5.455104351043701
8.646550738811493,4.980536460876465
8.659786507487297,4.329836368560791
8.721133521199226,3.9648468494415283
8.751314601302147,3.8640620708465576
8.677788561582565,4.085777759552002
8.601814275979995,4.392869472503662
8.550525856018066,4.701198101043701
8.52329305112362,4.940395355224609
8.50711245238781,5.051623821258545
8.497343102097512,5.070742607116699
8.48901682794094,5.06082010269165
8.484454818069935,5.036683559417725
8.477591349184513,5.0871357917785645
8.466454695165158,5.071819305419922
8.462056858837604,5.016739368438721
8.450938323140145,4.928084850311279
8.444065077602863,4.846984386444092
8.437902216613292,4.793057441711426
8.435103671252728,4.750847816467285
8.427061440050602,4.7644829750061035
8.418358972668647,4.842383861541748
8.418077996373176,4.9218010902404785
8.417891089618205,4.985418319702148
8.38973332196474,4.753273010253906
8.3885012075305,4.508484363555908
8.387439438700676,4.469983100891113
8.378746156394481,4.524423599243164
8.37483070641756,4.700231075286865
8.38614235073328,4.936517715454102
8.384665456414222,5.031941890716553
8.383668096363545,5.087059020996094
8.376799629628659,5.116919994354248
8.362828993797303,5.10189962387085
8.349713249504566,5.058520793914795
8.344786967337132,4.996872901916504
8.342734649777412,4.938896656036377
8.343012794852257,4.8986029624938965
8.33213363736868,4.895749568939209
8.33005980849266,4.886499404907227
8.327877932786942,4.8989176750183105
8.326349072158337,4.923965930938721
8.323920388519763,4.947249889373779
8.320033724606038,4.959954261779785
8.313846749067306,4.927237510681152
8.308119727671146,4.890848636627197
8.303718355298042,4.8503899574279785
8.299079583585263,4.8577961921691895
8.29621412307024,4.859617233276367
8.304076498746872,4.888864994049072
8.313424830138683,4.901581764221191
8.332490800321102,4.89914608001709
8.350256527960301,4.882403373718262
8.3431906580925,4.8117594718933105
8.327042771875858,4.7651801109313965
8.300308068096637,4.677969455718994
8.290445621311665,4.677034378051758
8.280025662481785,4.6787848472595215
8.275401000678539,4.839690685272217
8.276950700581073,4.898294448852539
8.27643091827631,4.907189846038818
8.271680842339993,4.965854644775391
8.266883446276188,4.971674919128418
8.258702997863292,4.925168991088867
8.250609372556209,4.867903232574463
8.246364130079746,4.79240608215332
8.240605548024178,4.751342296600342
8.236729596555232,4.664770603179932
8.23224567323923,4.691171169281006
8.237205632030964,4.745752334594727
8.25630992203951,4.724241256713867
8.273094515502454,4.7038350105285645
8.272834275662898,4.692525386810303
8.256271058321,4.739567279815674
8.246046943962574,4.816404819488525
8.245720373094082,4.833411693572998
8.239576734602451,4.801581859588623
8.239233918488026,4.7855753898620605
8.22976631373167,4.75274658203125
8.223098818957805,4.725595951080322
8.208414913713932,4.704955101013184
8.201713068783283,4.6931471824646
8.195620939135551,4.730647563934326
8.18747629225254,4.789292812347412
8.187214277684689,4.873371601104736
8.194436025619506,4.952030181884766
8.196015432476997,4.961629390716553
8.187255312502383,4.915587902069092
8.181925474107265,4.8001580238342285
8.200007739663125,4.705132007598877
8.223777160048485,4.623718738555908
8.2258570805192,4.57064962387085
8.225849252939224,4.526298522949219
8.222754430770873,4.498241901397705
8.217010770738124,4.494485855102539
8.202265037596225,4.5475358963012695
8.184526073932648,4.570051193237305
8.171421556174755,4.617208957672119
8.164548386633395,4.671996116638184
8.157447750866414,4.779397010803223
8.147114092111588,4.837784290313721
8.154890105128288,4.849242210388184
8.165395238995552,4.844210147857666
8.166113007068635,4.849796772003174
8.163197438418866,4.863528728485107
8.164900383353233,4.853487968444824
8.160025875270367,4.848911285400391
8.154902483522893,4.837948322296143
8.15373200327158,4.848144054412842
8.13958623111248,4.843379497528076
8.123226122558117,4.82081937789917
8.133114954829216,4.824206352233887
8.143772725760936,4.806851863861084
8.138324783742428,4.834659576416016
8.135755397379398,4.862382411956787
8.113812671601773,4.839047908782959
8.099114526808261,4.8076910972595215
8.101244494318962,4.791508197784424
8.103858233988285,4.750245094299316
8.09899236559868,4.7303643226623535
8.095944780111314,4.7223896980285645
8.082990010082721,4.755886077880859
8.0662982493639,4.815470218658447
8.06216440051794,4.85941743850708
8.071569572389127,4.901422500610352
8.08563399016857,4.934016704559326
8.103437486290932,4.94637393951416
8.103300848603249,4.906762599945068
8.096748815476895,4.885442733764648
8.091470651328564,4.839520454406738
8.065873576700687,4.889668941497803
8.049209874868392,4.904242038726807
8.04576693624258,4.863569259643555
8.044661748409272,4.8106303215026855
8.0485113799572,4.763317584991455
8.052889631688595,4.741816520690918
8.052505557239055,4.727410316467285
8.044607539474963,4.712522983551025
8.041054017841816,4.741825103759766
8.044078831374645,4.749897003173828
8.02853216677904,4.706923484802246
8.02493600845337,4.585813045501709
8.030754658579827,4.519948959350586
8.022103810310364,4.559933662414551
8.018752063810826,4.5900654792785645
8.021376740932464,4.638241291046143
8.033041290938854,4.649396896362305
8.046023571491242,4.630814075469971
8.039340326189995,4.79019021987915
8.014838729798793,4.7679762840271
8.004056759178638,4.588100910186768
8.010459114611148,4.510952472686768
8.008649653196334,4.510915279388428
8.00557545274496,4.58799934387207
8.022626622021198,4.754823684692383
8.019796366989613,4.822567462921143
8.0168821439147,4.857862949371338
8.003362625837326,4.882819652557373
7.994602093100548,4.898192882537842
7.99017646163702,4.905457973480225
8.011992433667183,4.882923603057861
8.032491539418697,4.86431360244751
8.050513960421085,4.84476900100708
8.061982968449593,4.871011734008789
8.051417207717895,4.926305770874023
8.039027443528175,4.966541767120361
8.013971793651582,4.960913181304932
7.982300470769405,4.9246954917907715
7.976176804304123,4.869960308074951
7.992830865085125,4.857393264770508
8.034890829026699,4.794642448425293
8.03671292066574,4.754823684692383
8.023238199949265,4.702921390533447
8.016741047799588,4.564675807952881
8.022751511633397,4.62592887878418
8.012008886039258,4.720015048980713
8.012110954523086,4.818889141082764
8.047158302366734,4.801279067993164
8.066979546844959,4.725396156311035
8.0624084725976,4.634053707122803
8.055926164984703,4.565339088439941
8.032998710870743,4.601093292236328
8.001807434856891,4.6896748542785645
7.973639525473118,4.834766387939453
7.983778361976147,4.945138454437256
7.971850688755512,4.958293437957764
7.967075204849243,4.970768928527832
7.941792269051075,4.89969539642334
7.926706628501416,4.760093688964844
7.939066833257675,4.652688503265381
7.954520371556282,4.563613414764404
7.942121922969818,4.568253993988037
7.921496073901653,4.620909214019775
7.914298617839814,4.699521064758301
7.901887312531471,4.7169880867004395
7.8971211776137356,4.662283420562744
7.90534725189209,4.59309720993042
7.912306793034077,4.563450813293457
7.923453086614609,4.605116844177246
7.965086859464646,4.691807746887207
7.970090614259243,4.6927714347839355
7.927976778149604,4.669755458831787
7.902471017837525,4.650408744812012
7.872091665863991,4.634374618530273
7.87925588786602,4.627814769744873
7.866798236966133,4.664096355438232
7.859227539598942,4.7354302406311035
7.905703338980675,4.82028341293335
7.953135623037815,4.753329753875732
7.971925663948059,4.661034107208252
7.941323734819889,4.61518669128418
7.90483610033989,4.553974628448486
7.886972600221634,4.499545574188232
7.907285767793655,4.411249160766602
7.925924549996853,4.352121353149414
7.936593140661716,4.360734462738037
7.943152669072151,4.355639934539795
7.940617071092129,4.338728427886963
7.928065317869186,4.320676326751709
7.923868729174137,4.297022342681885
7.908519034087658,4.381626605987549
7.903729964792729,4.371943950653076
7.866685593128205,4.421799182891846
7.8257786825299265,4.556326389312744
7.813855372369289,4.721044540405273
7.821493175625801,4.818637371063232
7.854139783978463,4.8604559898376465
7.8666072830557825,4.873559474945068
7.887294052541256,4.827371120452881
7.886247077584267,4.7602691650390625
7.8770582437515255,4.693009853363037
7.838756403326988,4.713516712188721
7.823726406693458,4.700947284698486
7.823226828873158,4.677215099334717
7.834612320363521,4.648240566253662
7.859323966503143,4.643707275390625
7.8682006552815436,4.800776481628418
7.860866041481495,4.8970627784729
7.843604801595211,4.943699836730957
7.829131738841534,4.9495673179626465
7.802907831966877,4.910496711730957
7.795775187015534,4.86607027053833
7.796228438615799,4.862899303436279
7.805386972427368,4.777859687805176
7.820001991093159,4.695240020751953
7.814238585531712,4.661996364593506
7.763810297846794,4.7242021560668945
7.76494238525629,4.802567958831787
7.784603862464428,4.978700160980225
7.802902968227864,4.829125881195068
7.877916856110096,4.941070079803467
7.9684675797820095,5.080726146697998
7.902102535963058,4.781368732452393
7.874174478650093,4.607308864593506
7.8731628701090814,4.526921272277832
7.859710240364075,4.558527946472168
7.8431217044591905,4.589819431304932
7.826274277269841,4.598089218139648
7.807665891945362,4.561913013458252
7.7915502652525905,4.476175785064697
7.814960531890392,4.378949165344238
7.8366533145308495,4.294297218322754
7.829269661009311,4.241173267364502
7.777650484442711,4.401448726654053
7.7442055746912954,4.6028828620910645
7.737590330839157,4.626562118530273
7.751643884181976,4.640970230102539
7.7794349327683445,4.683654308319092
7.783713872730732,4.720784664154053
7.795048142969608,4.754580974578857
7.779866823554039,4.699004173278809
7.7755356118083,4.585990905761719
7.78738419264555,4.504899024963379
7.777885767817497,4.486835956573486
7.763497652113438,4.3909010887146
7.794261087477207,4.1864776611328125
7.849577996134758,4.208613872528076
7.859040504693985,4.333490371704102
7.841943813860416,4.524511814117432
7.822397476434707,4.640933513641357
7.782463867962361,4.592671871185303
7.7943659126758575,4.547128200531006
7.8011440128088,4.614269733428955
7.789302115142346,4.694983959197998
7.76480810046196,4.74371337890625
7.7653730571269985,4.657307147979736
7.767398327589035,4.564986705780029
7.770619989931584,4.490462779998779
7.777686840295791,4.45508337020874
7.761514864861965,4.515526294708252
7.745994600653648,4.525097846984863
7.744865611195564,4.467494010925293
7.740132495760918,4.357412815093994
7.744992998242378,4.373280048370361
7.759034520387649,4.378392696380615
7.800112803280354,4.512845993041992
7.754635123908519,4.669668197631836
7.7734274312853815,4.761593341827393
7.7721940383315085,4.809800624847412
7.7542753860354425,4.748472690582275
7.733286532759666,4.733113765716553
7.795947010815143,4.8796257972717285
8.037303403019905,5.095321178436279
7.9908447727561,4.692742347717285
7.9321260273456575,4.633778095245361
7.877982909977436,4.734885215759277
7.846601003408432,4.730258941650391
7.836883895099163,4.74090051651001
7.846479150652885,4.884458541870117
7.856907750666141,4.951408386230469
7.838078638911247,4.969139099121094
7.815355782210827,4.964897632598877
7.786121787130833,4.936916351318359
7.751945342123508,4.888446807861328
7.729254877567291,4.829987049102783
7.71432576328516,4.755316257476807
7.6976125061511995,4.6736884117126465
7.681549227237701,4.624087810516357
7.690741094946861,4.6180315017700195
7.717019936442375,4.562265396118164
7.7339019775390625,4.428365707397461
7.747933100163936,4.235114574432373
7.758428022265434,4.06754207611084
7.737050947546959,4.245666980743408
7.7473714590072635,4.559793949127197
7.7224698781967165,4.603013515472412
7.665494854748249,4.539816379547119
7.649188408255577,4.511908054351807
7.6465676605701445,4.4850239753723145
7.643894256651402,4.58604097366333
7.7048070058226585,4.798000812530518
7.703956408798694,4.840851306915283
7.694551379978657,4.801456928253174
7.688165232539177,4.666795253753662
7.696583077311516,4.5374064445495605
7.688417729735375,4.526600360870361
7.678025960922241,4.520127296447754
7.670780958235264,4.496901988983154
7.676974518597126,4.468334674835205
7.702184890210629,4.520452976226807
7.696785393357277,4.490846157073975
7.70174675732851,4.3315110206604
7.7669614285230635,4.120356559753418
7.791663476824761,4.0226593017578125
7.725703912973404,4.274238109588623
7.869368854165077,4.673193454742432
7.839154925942421,4.507885456085205
7.726559396088123,4.411348819732666
7.737156455218792,4.260207653045654
7.740908947587013,4.300452709197998
7.732207238674164,4.470037937164307
7.796774213016033,4.618354320526123
7.840828286111355,4.692592144012451
7.8671146631240845,4.709287166595459
7.876928885281086,4.69907808303833
7.863622687757015,4.575367450714111
7.837851089239121,4.413640975952148
7.813217590749264,4.412590026855469
7.794867497682572,4.554399490356445
7.766668871045113,4.56959867477417
7.734259422123432,4.392431259155273
7.71395358145237,4.329479694366455
7.682628710567951,4.276937484741211
7.654382415115833,4.4639201164245605
7.639775103330612,4.494295597076416
7.625452446937561,4.41519832611084
7.639019449055195,4.511377811431885
7.635336190462112,4.332538604736328
7.647617660462856,3.987384557723999
7.66738720536232,3.8916685581207275
7.6297177657485005,4.127553462982178
7.598723566532135,4.51454496383667
7.613598808646202,4.787076950073242
7.627692838013172,4.920722961425781
7.691909228265286,4.970810413360596
7.740976379811764,4.9741034507751465
7.771040754020214,4.963334560394287
7.738926488161087,4.854200839996338
7.695595157146454,4.733152866363525
7.670629052817821,4.555300235748291
7.636966033279895,4.6378984451293945
7.597752973437309,4.6888251304626465
7.604207055270672,4.6454033851623535
7.613682879507541,4.542057991027832
7.606341558694839,4.422179222106934
7.611796048283577,4.318548679351807
7.601517276465893,4.246375560760498
7.5912557825446125,4.113664150238037
7.565623261034489,4.202460765838623
7.581069727241993,4.343320846557617
7.580153915286064,4.256834506988525
7.623546420037746,4.022661209106445
7.635790194571018,3.9982244968414307
7.5993831589818,4.170954704284668
7.579869671165943,4.2960662841796875
7.581000302731991,4.300571918487549
7.5842996940016745,4.2011799812316895
7.601654992997647,4.172974109649658
7.587161876261234,4.44258451461792
7.574252979457379,4.44887113571167
7.6185063585639,4.34660005569458
7.7042160987854,4.273562908172607
7.740891291201114,4.317613124847412
7.738664273917675,4.477104187011719
7.693781892955303,4.605956077575684
7.64185352474451,4.656365394592285
7.6331075325608255,4.663297176361084
7.624867667257786,4.707520008087158
7.614911191165447,4.732964992523193
7.604092837870121,4.755891799926758
7.606971709430217,4.659631252288818
7.635666996240616,4.560676097869873
7.655702829360962,4.467058181762695
7.670985822379589,4.443629741668701
7.687380433082581,4.574220180511475
7.691074466705322,4.656752586364746
7.698329721391201,4.690955638885498
7.6644025385379795,4.642924785614014
7.589262630045414,4.435232639312744
7.591651155054569,4.179423809051514
7.61566509604454,4.085879325866699
7.615587924420834,4.233959674835205
7.6473360225558284,4.423454284667969
7.642687548696995,4.564018249511719
7.602462892234326,4.550615310668945
7.5442466795444485,4.477994918823242
7.535836665332317,4.409215927124023
7.6591645032167435,4.2815375328063965
7.704848988354206,4.162696838378906
7.653253348171711,4.312973499298096
7.617971810698509,4.449946880340576
7.602269443869591,4.509957790374756
7.5891350761055945,4.481684684753418
7.587151063978672,4.448314666748047
7.612115082144737,4.367032051086426
7.612522773444653,4.245948791503906
7.616206469386816,4.157425880432129
7.6043018206954,4.067261219024658
7.580654594302177,4.041631698608398
7.55897227525711,4.093740463256836
7.542215061187744,4.117712497711182
7.519826076924801,4.3600263595581055
7.508254763484001,4.351660251617432
7.503416725993157,4.406489849090576
7.5183664247393605,4.350253582000732
7.553248874843121,4.288888454437256
7.564692281186581,4.1626877784729
7.584037207067013,4.013383388519287
7.558452640473843,4.0797343254089355
7.578145544230938,4.297142028808594
7.529476018249989,4.117060661315918
7.540967063605786,3.975388526916504
7.542501626908779,3.878338575363159
7.5449260622262955,3.872365951538086
7.516464312374592,4.1506171226501465
7.597428859770298,4.511733531951904
7.558420066535473,4.569633960723877
7.514573289453983,4.573953628540039
7.537727604806423,4.433499813079834
7.545034027099609,4.126907825469971
7.525811846554279,3.979938268661499
7.496845448017121,3.977423667907715
7.5030575633049015,3.9530155658721924
7.507875353097916,4.024956226348877
7.551573333144188,4.207736015319824
7.563070775568486,4.277824878692627
7.631701543927193,4.000625133514404
7.60836286097765,3.9451448917388916
7.602060140669346,3.911381483078003
7.637995690107346,3.8806707859039307
7.686725825071335,4.189363479614258
7.641338388621807,4.104812145233154
7.568949227035046,3.935563802719116
7.654433155059815,3.7908599376678467
7.563398648798466,4.132924556732178
7.592092250287533,4.311401844024658
7.644185201823712,4.448819160461426
7.669868244230747,4.587991237640381
7.679556761682034,4.553170680999756
7.67235962152481,4.516047477722168
7.643847067654133,4.275844097137451
7.598574574291706,4.02937650680542
7.525098805129528,4.099477767944336
7.488222023844719,4.226358413696289
7.49533359259367,4.269401550292969
7.533684393763542,4.212351322174072
7.584712551534176,4.254705429077148
7.604194287955761,4.252828121185303
7.597515693306923,4.407660007476807
7.569739688932896,4.420290470123291
7.526306328177452,4.280869007110596
7.497958183288574,4.2601470947265625
7.488349968194962,4.261703014373779
7.470049242675304,4.048501968383789
7.4678436636924745,3.9020111560821533
