Name: SNET2_debugK5x10_200
Epocs: 50
Batches: 720
Learning Rate: 1e-05
Date: 2019-03-06-16-04-18
train test 
13.893843376470937,10.444438219815492
14.023657036158774,10.320750685036183
12.499297623336314,9.682277458161115
11.997070241305563,9.455804922431707
11.833987587193649,9.37070070579648
11.70678305791484,9.29836985617876
11.615438864462906,9.243914853036404
11.499055640068319,9.195128879137338
11.497880819025967,9.17891035489738
11.506285370224052,9.16733600385487
11.514760189006726,9.156279927305878
11.45327400614818,9.135202915035189
11.6653156010641,9.156974382698536
11.742542936404545,9.164705343358218
11.697984178529845,9.152565629780293
11.770187724133333,9.162716745957733
11.818831741230355,9.164436111971735
11.728172166893879,9.14683956503868
11.797047537068526,9.155607188865542
11.841804166552093,9.14706447571516
11.943839443640577,9.154235668852925
11.758176071569324,9.118467092514038
11.556108923215005,9.099632818996906
11.432802001055745,9.098829045146704
11.377863264415,9.101042342185973
11.480275609592598,9.114044473320245
12.110814631937279,9.20631729029119
11.965643529262808,9.182145194709301
11.642863388359547,9.11633978933096
11.698457802997694,9.119543533027173
11.825931068013112,9.184310776740313
12.07901301458478,9.225205732882023
11.680570219208796,9.150902507454157
11.541398770527707,9.129408295452595
11.771998493787315,9.150439136475324
11.669662151692641,9.141979160904885
11.814697018431293,9.173365750908852
11.6595239456743,9.139361125975848
11.640838894579145,9.09670231640339
12.28793907041351,9.24098198711872
12.517501506292158,9.284297244995832
12.077988563436602,9.224386455118657
11.662732873484492,9.161869525909424
11.828514254921012,9.192744901031256
12.206290392246512,9.238217278569937
11.840679862143265,9.179395701736212
12.109055874165561,9.228346175700427
12.299839020272096,9.26080280840397
11.7570026350932,9.17591683715582
12.93314635074801,9.387792480364443
11.749418532434436,9.160451629757882
