Name: SNET_DEBUG_K1FROM10_500EX_Brick1
Epocs: 50
Batches: 320
Learning Rate: 1e-06
Date: 2019-05-08-06-28-32
train test 
22.782849305868147,22.035770738124846
13.685612885653972,11.911568191647529
13.310415697842837,11.536777898669243
12.95362093374133,11.32563194334507
12.831579308211804,11.114018794894218
13.393133195489645,12.014068642258644
12.77464588135481,11.028530967235564
12.422248275578022,10.728167337179183
12.43665416315198,10.915370306372642
12.336411336809396,10.797209092974663
12.316499017179012,10.654578945040702
12.289181678742171,10.583373200893401
12.213146477192641,10.544305664300918
12.348080015927554,10.887810742855072
12.13134493753314,10.578983476758003
12.105855318903924,10.582801070809364
12.208984006941318,10.629973161220551
11.91074526682496,10.388151186704636
11.926043001562357,10.452423909306527
11.924272573739291,10.463889408111573
11.8253903567791,10.363582783937455
12.09515980258584,10.65082307457924
11.766048689186572,10.276496276259422
11.707871933281421,10.178748786449432
11.747063309699296,10.238064512610435
11.835961703956126,10.396283686161041
11.620257564634084,10.113073977828027
11.545386585593224,10.098892676830292
11.556626668572425,10.079795932769775
11.59895499944687,10.225598227977752
11.462824160978197,10.039972475171089
11.808024751394987,10.473573023080826
11.456512465327979,10.046097251772881
11.637063117697835,10.297084149718284
11.43974873125553,9.99171427488327
11.649717005714773,10.326189997792245
11.41859758682549,9.989463624358176
11.326512870192527,9.92643794864416
11.345313522219659,9.910244262218475
11.293405095115304,9.871333248913288
11.349584220349788,9.96232823729515
11.253015670180321,9.876341296732425
11.245405445247888,9.897078269720078
11.328939395397901,10.052571496367454
11.234979826584459,9.893315277993679
11.226120898500085,9.871974530816079
11.158449123799802,9.807983992993831
11.247978748753667,9.904893359541893
11.228035318478941,9.85296140909195
11.167843192070723,9.85578083395958
11.103306383267045,9.778859017789364
