Name: SNETNORM_Adam_L1LOSS_5000EX_B20_DILATFLOWNET_LR_0001
Epocs: 7
Batches: 250
Learning Rate: 0.0001
Date: 2019-06-11-22-11-59
train test 
7.723284232616424,5.209406852722168
7.727378249168396,5.0597686767578125
7.713693743944168,5.103786945343018
7.715259957313537,5.022692680358887
7.713305726647377,5.007720470428467
7.713675791025162,4.994533061981201
7.727128967642784,4.860246658325195
7.732200413942337,4.810001373291016
7.755118906497955,4.674376487731934
7.775893622636795,4.572451591491699
7.757258498668671,4.646605491638184
7.734697961807251,4.769373416900635
7.719306707382202,4.880456924438477
7.714181232452392,4.9464192390441895
7.714132827520371,4.975879192352295
7.715229314565659,4.973438739776611
7.715370124578476,4.972456455230713
7.715198609232902,4.9772629737854
7.71624031662941,4.971451759338379
7.719072937965393,4.922818660736084
7.722662311792374,4.8653950691223145
7.7268445789813995,4.8241658210754395
7.7304086744785305,4.7972412109375
7.733209624886513,4.778263092041016
7.738948196172714,4.74444580078125
7.7435854285955426,4.715112686157227
7.745875591039658,4.704651832580566
7.741876845061779,4.7294816970825195
7.739715094864368,4.743548393249512
7.742405937612057,4.737596035003662
7.748309233784676,4.723464012145996
7.7531836703419685,4.706789493560791
7.751597109436989,4.713444232940674
7.7487032383680345,4.719679355621338
7.739649043977261,4.750756740570068
7.733085538446903,4.785543918609619
7.728641055524349,4.819352626800537
7.726477682590485,4.847299098968506
7.7252821028232574,4.849890232086182
7.725028787553311,4.836632251739502
7.727102018892765,4.7783284187316895
7.732558058202267,4.742928504943848
7.736459673941136,4.739034175872803
7.7372315034270285,4.748508453369141
7.735163973271847,4.769416332244873
7.73386279642582,4.779565334320068
7.734599751234055,4.774333953857422
7.736130422353744,4.763765811920166
7.736570449173451,4.765665054321289
7.735761870443821,4.770878791809082
7.734910048544407,4.767162799835205
7.731700743734836,4.768773555755615
7.728767444193363,4.7585320472717285
7.737094077467918,4.6602067947387695
7.737171152234078,4.607280254364014
7.721183612942696,4.726494789123535
7.717228904366493,4.758937358856201
7.717163780331612,4.738683700561523
7.710333397984504,4.736720561981201
7.706174632906913,4.718541622161865
7.711781537532806,4.552722930908203
7.707889880239963,4.6640238761901855
7.714496539533139,4.756805419921875
7.718619413673878,4.774923801422119
7.721457107365131,4.758662700653076
7.724714784324169,4.72959041595459
7.741207082569599,4.649328708648682
7.7566896885633465,4.588015556335449
7.732264949381351,4.63574743270874
7.718376815319061,4.687734127044678
7.715221996605396,4.695549011230469
7.7140223070979115,4.678727626800537
7.705070246756077,4.6255574226379395
7.696593114733696,4.664215564727783
7.69140714108944,4.74920654296875
7.674193471670151,4.644236087799072
7.6676967471838,4.580658435821533
7.676616477966308,4.746121883392334
7.6757489264011385,4.810511589050293
7.673941591382027,4.875417232513428
7.672727811336517,4.659933090209961
7.672953370213508,4.580002784729004
7.670238745212555,4.606571674346924
7.667077738046646,4.581996917724609
7.663052085042,4.571041584014893
7.659014019370079,4.443475246429443
7.653195297718048,4.4960784912109375
7.651234808564186,4.504128932952881
7.650749239325523,4.627879619598389
7.63626022040844,4.602145671844482
7.6242953687906265,4.498671531677246
7.622780004143715,4.468691825866699
7.609313210844993,4.417723655700684
7.5944822281599045,4.4328131675720215
7.613914948701859,4.510040760040283
7.60187780559063,4.398930549621582
7.5971988290548325,4.305695533752441
7.6030933409929276,4.305382251739502
7.621978995203972,4.48440408706665
7.621186596155167,4.574699878692627
7.605217507481575,4.530665874481201
7.570005315542221,4.3876776695251465
7.54073084294796,4.265548229217529
7.522847613692283,4.213410377502441
7.52705787718296,4.062577724456787
7.502857494354248,4.2191691398620605
7.4952434480190275,4.222380638122559
7.56076613664627,3.853469133377075
7.4920900672674176,4.248383522033691
7.529024198651314,4.719817638397217
7.537654030323028,4.574217796325684
7.560302034020424,4.465890407562256
7.578906068205834,4.297966480255127
7.582463166117668,4.274244785308838
7.541960120201111,4.445946216583252
7.566019237041473,4.794589996337891
7.552526485919953,4.672021389007568
7.535490107536316,4.372103691101074
7.51760548055172,4.394130706787109
7.5377100795507435,4.660037517547607
7.5683834046125416,4.796919345855713
7.557638373970986,4.744261264801025
7.543248495459556,4.620450496673584
7.531249475479126,4.454507350921631
7.521650344133377,4.371353626251221
7.5133465975522995,4.330398082733154
7.4927181750535965,4.182864665985107
7.459802332520485,4.136612415313721
7.427118369936943,4.195265293121338
7.39021789431572,4.2851362228393555
7.364855635166168,4.216111660003662
7.431883892416954,3.917863607406616
7.380337408185005,4.2397308349609375
7.387186270952225,4.285103797912598
7.421322008967399,4.352202415466309
7.372669816017151,4.514750957489014
7.387230226397515,4.60075569152832
7.4588661879301075,4.528175354003906
7.491234815120697,4.649768829345703
7.413494795560837,4.5399699211120605
7.423176407814026,4.571832180023193
7.421123683452606,4.341701030731201
7.385449200868607,4.189399242401123
7.360750204324722,4.014173984527588
7.3805317223072056,3.8326187133789062
7.361870056390762,3.9078588485717773
7.401914796233177,4.146388053894043
7.4002159297466275,4.2498698234558105
7.3604845941066745,4.228695392608643
7.558532917499543,4.217422962188721
7.394300881028175,4.311911106109619
7.3490760058164595,4.4948554039001465
7.390573653578758,4.780299663543701
7.455265700817108,4.575802803039551
7.510718995332718,4.403501033782959
7.537937939167023,4.255395889282227
7.5368588894605635,4.0952606201171875
7.512719383835792,4.160732746124268
7.447210958600044,4.354770660400391
7.425198447704315,4.713405609130859
7.4189775586128235,4.942880630493164
7.408718603849411,4.909409999847412
7.37473372220993,4.751102924346924
7.34690352678299,4.619613170623779
7.332240322232247,4.466314792633057
7.309733447432518,4.279154300689697
7.322823444008828,4.269097805023193
7.357587620615959,4.2974629402160645
7.394452583789826,4.312256336212158
7.399034962058067,4.257286071777344
7.377266499400139,4.0983805656433105
7.431730705499649,3.979461431503296
7.434144261479378,4.159554481506348
7.34856179356575,4.413963794708252
7.349206033349037,4.4987664222717285
7.388220617175103,4.425739288330078
7.427170360088349,4.358243465423584
7.435794097185135,4.334455966949463
7.419755938649177,4.308104515075684
7.381917434930801,4.264121055603027
7.3152832955122,4.307942867279053
7.2863658398389815,4.248025894165039
7.262128773331642,4.128803253173828
7.229939973354339,3.9819233417510986
7.251787170767784,3.8703081607818604
7.295700314640999,3.68052077293396
7.287721014022827,3.6380608081817627
7.275194123387337,3.8668622970581055
7.275150115787983,4.149949550628662
7.22534159719944,4.302352428436279
7.26388792693615,4.272578716278076
7.259729120135307,4.0717363357543945
7.288512995839119,3.9561731815338135
7.256052008271217,3.9524104595184326
7.2045333087444305,3.954525947570801
7.175212872028351,3.844428300857544
7.193183553218842,3.8113772869110107
7.206605899333954,3.846862554550171
7.199724152684212,4.001165866851807
7.1941057473421095,4.194825649261475
7.19572281241417,4.027808666229248
7.193241718411445,3.741537094116211
7.107157930731773,3.6738147735595703
7.057714426517487,3.7933037281036377
7.113112649321556,4.001572132110596
7.179750880599022,3.815221071243286
7.222552078962326,3.8937416076660156
7.24975448846817,3.9421451091766357
7.232333153486252,3.9047775268554688
7.197477546334267,3.9145851135253906
7.171471869945526,3.8663864135742188
7.120644682645798,3.838972330093384
7.097646692395211,3.7939655780792236
7.070997789502144,3.880612373352051
7.07156303524971,3.920895576477051
7.094226717948914,3.8823282718658447
7.104152047634125,3.883108377456665
7.04503288269043,3.810633897781372
7.002714067697525,3.737731695175171
7.014183464646339,3.8076982498168945
7.051005226373673,3.612070083618164
7.13189930319786,3.3216562271118164
7.076090189814567,3.593829393386841
7.116646659374237,3.930525541305542
7.13126585483551,4.107058048248291
7.066910752654076,3.920891523361206
7.025626528263092,3.7813940048217773
7.066892468929291,3.699925422668457
7.116593250632286,3.7785797119140625
7.099565556645393,3.6480798721313477
7.049887853860855,3.5018322467803955
7.028004401922226,3.4562771320343018
7.000371107459069,3.4498369693756104
7.018934532999992,3.4557716846466064
7.018519818782806,3.687116861343384
7.026309585571289,3.7107975482940674
6.999585756659508,3.6915619373321533
6.958194550871849,3.5937860012054443
6.993582901358605,3.594991445541382
6.986401379108429,3.8195667266845703
7.085333400964737,4.0831780433654785
7.0910578072071075,3.7641239166259766
7.244485133886338,3.6794233322143555
7.241988962888717,3.806314468383789
7.245456805825233,4.081209659576416
7.250708672404289,4.383688449859619
7.234011602401734,4.517061233520508
7.2148233413696286,4.462242603302002
7.146380698680877,4.2688212394714355
7.095313477516174,4.1707763671875
7.075353586673737,4.071873664855957
7.038368332386017,3.8293168544769287
7.013937112689018,3.7652511596679688
6.9548756062984465,3.602012872695923
6.9317286103963855,3.676684617996216
7.015232369303703,3.846769332885742
7.038269713521004,3.68422794342041
7.139454215764999,3.5432815551757812
7.019606378674507,3.45391845703125
6.967614144086838,3.4992682933807373
6.968412113189697,3.751751184463501
6.974809652566909,3.992239236831665
6.973222017288208,4.045315265655518
7.12978407740593,4.302933692932129
6.984960189461708,4.002908229827881
6.98356771171093,3.970881223678589
7.013140100240707,3.841888427734375
6.883291411399841,3.7253596782684326
6.841551798582077,3.6391687393188477
6.919935345649719,3.542163610458374
6.9075487673282625,3.525822401046753
6.920647138357163,3.7120678424835205
6.936058136820793,3.926419496536255
6.93714594244957,3.963357925415039
7.292692103981972,4.1576409339904785
7.077687057852745,4.030490398406982
6.913124144077301,3.980243444442749
7.109415158629417,4.300914764404297
7.176052835583687,4.273487091064453
7.244365811347961,4.079387187957764
7.31461623609066,3.8830583095550537
7.325245809555054,3.7916648387908936
7.2563577622175215,3.8938724994659424
7.140959534049034,4.073287487030029
7.152904903888702,4.338030815124512
7.12949061691761,4.309595584869385
7.035088211297989,4.138826370239258
6.992587453126907,4.0182785987854
6.99490013718605,3.945211410522461
6.964544433355331,3.824831008911133
6.936528635025025,3.737151861190796
6.972180598974228,3.8691959381103516
7.058108833432198,4.045530319213867
7.110865887999535,4.12028169631958
7.086150172352791,4.058133602142334
7.025331282615662,3.8737480640411377
7.01787117421627,3.693284749984741
7.089641818404198,3.7121050357818604
6.9904945373535154,3.7312469482421875
6.947435858845711,3.761568784713745
6.983341434597969,3.7753562927246094
7.026085376739502,3.8717591762542725
7.076129814982414,3.930175542831421
7.078636860847473,3.8726274967193604
7.0327831476926805,3.757335901260376
7.0080012530088425,3.7138350009918213
7.038309040665626,3.442917823791504
6.904513657093048,3.156829595565796
6.924039739370346,3.278996467590332
7.000956800580025,3.322127342224121
7.033736392855644,3.1443519592285156
7.041331422328949,2.9611120223999023
7.0471301764249805,3.051732063293457
7.01105664074421,3.3213694095611572
6.907949927449226,3.6503515243530273
6.878560051321983,3.6970250606536865
6.876073449850082,3.5249032974243164
6.879136383533478,3.437938690185547
6.853736087679863,3.3855154514312744
6.845607087016106,3.3599913120269775
6.833758398890495,3.256267547607422
6.8277611315250395,3.416918992996216
6.825754779577255,3.4984004497528076
6.839683765172959,3.653911590576172
6.880027994513512,3.8006341457366943
6.891767306625843,3.71376895904541
6.905108615756035,3.598609209060669
6.839458602666855,3.6185131072998047
6.795685556530953,3.6613857746124268
6.880884751677513,3.711071729660034
6.8397134870290754,3.5172770023345947
6.82752211689949,3.448448896408081
6.842527675628662,3.4206321239471436
6.8487004220485685,3.4073712825775146
6.803512468934059,3.4860494136810303
6.795597779750824,3.5101757049560547
6.761386275291443,3.499683141708374
6.7554451555013655,3.4482815265655518
6.742266973853111,3.5406715869903564
6.739555239677429,3.631195306777954
6.765862268209458,3.685847282409668
6.787707987427711,3.7407445907592773
6.71454105079174,3.6428768634796143
6.686991828680038,3.58477520942688
6.67934598326683,3.575608968734741
6.711375498771668,3.461318254470825
6.7637653887271885,3.382497549057007
6.807793739438057,3.3223819732666016
6.8225792169570925,3.4512064456939697
6.826778581738472,3.700756788253784
6.784714652597904,3.777737617492676
6.714970637857914,3.722912073135376
6.738738185167312,3.564622163772583
6.8508218169212345,3.540539026260376
6.876667711138725,3.424039602279663
6.78877999484539,3.320854425430298
6.716938745975495,3.254631996154785
6.715603739023209,3.2091143131256104
6.7117307305336,3.2506582736968994
6.740593439340591,3.3284246921539307
6.769971512258053,3.3686580657958984
6.7669074684381485,3.453514337539673
6.727557395398617,3.4210405349731445
6.750519707798958,3.3963534832000732
6.724478614330292,3.472296953201294
6.754476416110992,3.618791341781616
6.816061130166053,3.28621506690979
7.028915736079216,3.2442920207977295
6.973759594559669,3.588280439376831
7.00921606272459,3.9512603282928467
7.0592642545700075,4.245594501495361
7.008976212143898,4.328817844390869
6.935224653780461,4.2235798835754395
6.845023423433304,3.9109914302825928
6.807199832797051,3.7334725856781006
6.81989663541317,3.5929927825927734
6.814592641592026,3.455899477005005
6.737642180919647,3.419773817062378
6.669811409711838,3.407301902770996
6.658117294311523,3.479487180709839
6.710660833120346,3.6175663471221924
6.849322080612183,3.590128183364868
6.916673412919044,3.4505650997161865
6.810190832614898,3.1984119415283203
6.754903814196586,3.15189266204834
6.7744034141302105,3.4225873947143555
6.749819453060627,3.679492235183716
6.7255335107445715,3.773106813430786
6.8342064917087555,4.0015363693237305
6.77380858361721,3.9095566272735596
6.712201806902885,3.8250980377197266
6.733838281035423,3.7749812602996826
6.666339847445488,3.767314910888672
6.630751350522042,3.7116153240203857
6.645474751293659,3.5867764949798584
6.701455527544022,3.4723424911499023
6.746598419547081,3.5084002017974854
6.724898916482926,3.570482015609741
6.721240466833114,3.5789690017700195
6.930262970924377,3.6165573596954346
7.000039282441139,3.798286199569702
6.657548120617866,3.525952100753784
6.8020876601338385,3.8133041858673096
6.916658189892769,3.9265613555908203
6.92459999024868,3.687882661819458
6.951397386193276,3.397761106491089
6.951442542672157,3.233181953430176
6.926517730951309,3.3873536586761475
6.815005956590175,3.6860036849975586
6.949315555393696,4.115237712860107
6.966038653254509,4.118509769439697
6.802646645903588,3.909273147583008
6.7051872462034225,3.6885054111480713
6.703030440211296,3.4909305572509766
6.7289116233587265,3.4099836349487305
6.7189379841089245,3.352031946182251
6.728544749319553,3.4767847061157227
6.8386880829930305,3.7149860858917236
6.923482610285282,3.8838703632354736
6.913792397081852,3.9337756633758545
6.8123541817069055,3.787191152572632
6.708334730565548,3.5341386795043945
6.743866091966629,3.397824287414551
6.752554151415825,3.4120028018951416
6.689576226472854,3.4249589443206787
6.727355836331844,3.4746291637420654
6.821180856227874,3.6368215084075928
6.875533932447434,3.741039991378784
6.865815433859825,3.7002222537994385
6.773931977152825,3.5413200855255127
6.751917088031769,3.4265174865722656
6.809089809656143,3.2773406505584717
6.634901919960976,3.074070692062378
6.702025148272514,3.173246145248413
6.766005685925483,3.1216812133789062
6.807165193557739,2.939751386642456
6.8797206580638885,2.9207546710968018
6.948976784944534,3.2613699436187744
6.869847130775452,3.6230642795562744
6.69004712998867,3.8362843990325928
6.719734540581703,3.7976233959198
6.668195587396622,3.5947444438934326
6.733169338107109,3.5107533931732178
6.722383761405945,3.4508087635040283
6.660950639843941,3.341890335083008
6.623262664675712,3.2156565189361572
6.641821664571762,3.2800190448760986
6.641263838112354,3.3600242137908936
6.641847603023052,3.440749406814575
6.669216948747635,3.4848620891571045
6.685223358869552,3.4367151260375977
6.6804314911365505,3.350994110107422
6.648461657762527,3.3381404876708984
6.61563133597374,3.340043067932129
6.689546218514442,3.3896093368530273
6.65053254365921,3.328447103500366
6.619914048910141,3.318213701248169
6.626416128873825,3.309762716293335
6.625261375308037,3.2839906215667725
6.572922351956367,3.2877695560455322
6.5583432674407955,3.2596166133880615
6.524731627106666,3.3191072940826416
6.533495011925697,3.319059133529663
6.534857854247093,3.4176366329193115
6.531671734154225,3.4698712825775146
6.575010025501252,3.475203275680542
6.594901415705681,3.5668210983276367
6.496018186211586,3.4672586917877197
6.486615362763405,3.3802127838134766
6.476535442471504,3.3729641437530518
6.493062841892242,3.2106611728668213
6.571410900354385,3.1158511638641357
6.653839692473412,3.1008071899414062
6.69820609241724,3.27527117729187
6.668550319969654,3.4890975952148438
6.618243868649006,3.5635557174682617
6.550992777943611,3.5007550716400146
6.5365772023797035,3.2368032932281494
6.65379371792078,3.1341075897216797
6.71220565289259,3.092615842819214
6.648584960401058,3.060183525085449
6.593624100089073,2.984206199645996
6.572570386528969,2.922100305557251
6.565309253334999,3.082167625427246
6.565387071669102,3.2172281742095947
6.581658174097538,3.2432937622070312
6.585862810909748,3.32244873046875
6.568415863811969,3.3187668323516846
6.600039032101631,3.3192193508148193
6.570876194536686,3.378495454788208
6.565327437222004,3.468334913253784
6.563917630910874,3.2215683460235596
6.738388025760651,3.234386444091797
6.7541138380765915,3.528695821762085
6.821290801465511,3.78971004486084
6.88247175514698,4.053647994995117
6.820949797332287,4.1188201904296875
6.7481603741645815,4.0032453536987305
6.651902523636818,3.618720054626465
6.613712701201439,3.390920400619507
6.626342409849167,3.2832555770874023
6.599049839377403,3.218229055404663
6.52477956712246,3.2336082458496094
6.474973386526107,3.236912965774536
6.506656864285469,3.3343465328216553
6.609237812459469,3.510141134262085
6.771473300457001,3.540135622024536
6.798138356208801,3.3387625217437744
6.635058373212814,3.065051317214966
6.549973359704017,2.927034378051758
6.563323506712914,3.193270683288574
6.5562706112861635,3.503950834274292
6.556210938096046,3.612165689468384
6.69496895968914,3.843090772628784
6.6616012990474704,3.855104684829712
6.534576317667961,3.7377119064331055
6.504496636986732,3.5831573009490967
6.450013835728169,3.4821817874908447
6.438800886273384,3.3327226638793945
6.455000911653042,3.160670042037964
6.5048519551754,3.1353466510772705
6.557768726348877,3.2519824504852295
6.554395879805088,3.357628107070923
6.555365900695324,3.41060471534729
6.774885430932045,3.494168281555176
6.83192999958992,3.609529733657837
6.495377971231937,3.3404080867767334
6.615570822358132,3.6833877563476562
6.751776580512524,3.8416240215301514
6.740230974555016,3.5812816619873047
6.749989169836044,3.2102231979370117
6.74328199326992,3.0583603382110596
6.678133690357209,3.391491174697876
6.61153842061758,3.7513115406036377
6.798931556940079,4.149105548858643
6.771466864645481,4.06846809387207
6.56633782684803,3.7460319995880127
6.50970845669508,3.509453773498535
6.5619395017623905,3.378049612045288
6.562423264980316,3.3539788722991943
6.545729303359986,3.321568489074707
6.543739682435989,3.4334232807159424
6.625089457631111,3.679589033126831
6.707174946367741,3.822211265563965
6.69879010617733,3.836796760559082
6.599350006878376,3.741950273513794
6.499032291769981,3.5103626251220703
6.669020780920983,3.491999626159668
6.668832141160965,3.482172966003418
6.500028720498085,3.3789966106414795
6.569197323918343,3.4313652515411377
6.723738291859627,3.5966453552246094
6.817665261030197,3.668715476989746
6.75390246361494,3.5545294284820557
6.608774536848069,3.318514585494995
6.643918047845363,3.28311824798584
6.668283735215664,3.0702288150787354
6.507437586784363,2.904536008834839
6.5728231251239775,3.1576526165008545
6.62981567978859,3.19966983795166
6.654523339867592,3.0551044940948486
6.7096078276634215,3.0206432342529297
6.789481580257416,3.3021061420440674
6.728372541069985,3.5995700359344482
6.524464230239391,3.739624261856079
6.581165379285812,3.702324867248535
6.522947713732719,3.4384193420410156
6.596438574790954,3.274043083190918
6.579951977729797,3.2651655673980713
6.519404098391533,3.2603728771209717
6.451310929656029,3.1686246395111084
6.447717486321926,3.2268190383911133
6.440141104161739,3.218167304992676
6.457209643721581,3.2256698608398438
6.4961145460605625,3.1963441371917725
6.536635394394398,3.1185104846954346
6.522545647621155,3.0217676162719727
6.462276285886764,3.0306460857391357
6.429898744821548,3.090655565261841
6.510384434461594,3.198467493057251
6.47615387737751,3.120587110519409
6.439537118375301,3.1237857341766357
6.44448893815279,3.146937131881714
6.443331438302994,3.1689178943634033
6.388754153251648,3.203709363937378
6.399721911549568,3.178154230117798
6.368386286497116,3.2362444400787354
6.38322631418705,3.2277297973632812
6.3882796600461,3.313993215560913
6.387952071428299,3.3578176498413086
6.427491860091687,3.389850616455078
6.440474916994572,3.3835737705230713
6.34688937664032,3.162443161010742
6.379065600037575,3.060889959335327
6.32935843616724,3.0640547275543213
6.330276036262513,2.9723827838897705
6.403239306807518,2.895303726196289
6.486896426975727,2.848708391189575
6.553335610032081,3.0412771701812744
6.528936763107777,3.2590999603271484
6.486359421908856,3.3071768283843994
6.412899360060692,3.177215337753296
6.389407722651958,3.0129692554473877
6.499435929954052,2.9793126583099365
6.566265217959881,2.9336440563201904
6.480368793010712,2.853064775466919
6.410278615355492,2.7189531326293945
6.404957094788552,2.6930360794067383
6.415874573588371,2.907149076461792
6.379638229310513,3.0240094661712646
6.374494081735611,3.024700403213501
6.382902355492115,3.008039712905884
6.383743917942047,2.9419679641723633
6.412727189064026,3.0833938121795654
6.395928658545017,3.2818849086761475
6.405223821103573,3.408396005630493
6.340826952457428,3.1532106399536133
6.640865325927734,3.160114288330078
6.743396735191345,3.4752559661865234
6.772646641731262,3.6730432510375977
6.7883710861206055,3.9196465015411377
6.700919978320599,3.9580914974212646
6.6143452897667885,3.8124284744262695
6.5070898741483685,3.424663543701172
6.464450496435165,3.1868066787719727
6.462186017632485,3.1137688159942627
6.418028908967972,3.1115028858184814
6.307728779315949,3.197467803955078
6.288225118815899,3.27956223487854
6.362426735460758,3.419710159301758
6.504299609363079,3.551508665084839
6.59140929877758,3.4861011505126953
6.4926044046878815,3.2131805419921875
6.384693136811256,2.938082695007324
6.371488228440285,2.7734835147857666
6.354622176289558,2.9464941024780273
6.348301826417446,3.2676804065704346
6.381750242412091,3.4001576900482178
6.650803327560425,3.726461410522461
6.4959508866071705,3.6737473011016846
6.32807597219944,3.5175015926361084
6.321993184089661,3.3407561779022217
6.296782724559307,3.232516050338745
6.287694726884365,3.143331289291382
6.30671605616808,3.032834768295288
6.341978566348553,3.015075445175171
6.412239222228527,3.137568235397339
6.415036341547966,3.2058849334716797
6.383213214576244,3.1463124752044678
6.576526030898094,3.1330173015594482
6.601976504921913,3.2182064056396484
6.315678894519806,3.0746195316314697
6.472737322747707,3.602553367614746
6.605108906328678,3.7987442016601562
6.595032155513763,3.5964982509613037
6.581797516345977,3.31951904296875
6.535274413228035,3.1760780811309814
6.529650849103928,3.392239570617676
6.502816838026047,3.71975040435791
6.718486234545708,4.1251912117004395
6.573975621163845,3.8097212314605713
6.373201958835125,3.3612306118011475
6.347952669858932,3.1139144897460938
6.428178438544274,3.0121047496795654
6.467256225645542,3.0722644329071045
6.437533946335316,3.0943191051483154
6.404200609028339,3.251689910888672
6.486008343100548,3.5151784420013428
6.57456775456667,3.625521421432495
6.547709167003632,3.516394853591919
6.425421583652496,3.258363723754883
6.394297403097153,3.063725471496582
6.6721307814121245,3.232213020324707
6.515170174837112,3.0506322383880615
6.392150597274304,3.097029447555542
6.531122614443302,3.394658327102661
6.699881176650524,3.6306722164154053
6.741596853733062,3.6776392459869385
6.619415381550789,3.531723976135254
6.483460204303265,3.3144423961639404
6.573622608184815,3.266092538833618
6.608728115260601,3.086930990219116
6.386166776716709,2.831677198410034
6.446400195360184,3.029142141342163
6.466553513705731,3.038851737976074
6.45921593606472,2.8213565349578857
6.537295788526535,2.7885119915008545
6.721179568767548,3.1171791553497314
6.611457419395447,3.328808069229126
6.370713482797146,3.3782198429107666
6.522007238864899,3.470782995223999
6.482309556007385,3.254865884780884
6.4889342248439785,3.0871102809906006
6.46444533765316,3.0791585445404053
6.395257741212845,3.0671613216400146
6.296694880723953,2.900782585144043
6.29459024220705,2.9316952228546143
6.312006390094757,2.939568281173706
6.350744546949864,2.982633590698242
6.396869926154613,2.995516538619995
6.418318496644497,2.9180572032928467
6.405569759011269,2.810063123703003
6.363398569822311,2.8698368072509766
6.326340520381928,2.9384801387786865
6.40061731338501,3.0119009017944336
6.326196750998497,2.9476277828216553
6.270145744085312,2.937952995300293
6.2783376142382625,2.937252998352051
6.301393157243728,2.958529472351074
6.264676243066788,2.9723479747772217
6.270215180516243,2.949389696121216
6.238500036299229,3.0449254512786865
6.226869398355484,3.062422037124634
6.238191141188144,3.182750940322876
6.245900829136372,3.192401885986328
6.285966549813748,3.218799352645874
6.2905774176120755,3.2398087978363037
6.1821837946772575,3.0382373332977295
6.224802267551422,3.001934289932251
6.187709903717041,2.939943552017212
6.182637779414653,2.78737735748291
6.272919942438603,2.7247390747070312
6.368038612604141,2.7535579204559326
6.424037684500218,2.995248794555664
6.370088605582714,3.2298476696014404
6.2993094846606255,3.1978273391723633
6.2387852147221565,3.0197794437408447
6.238462783396244,2.8562753200531006
6.325681653618813,2.799912691116333
6.388123720884323,2.7442944049835205
6.3110950827598575,2.6857059001922607
6.282613217830658,2.5892391204833984
6.317659667134285,2.5789003372192383
6.289972648024559,2.804824113845825
6.241747708618641,2.949139356613159
6.234341517090797,2.987035036087036
6.235999217629432,2.9746408462524414
6.22842453122139,2.915151596069336
6.264986270666123,3.006608009338379
6.261424872279167,3.135528802871704
6.257051269710064,3.1831929683685303
6.194897098839283,2.9417827129364014
6.481668514013291,3.003077507019043
6.593924263119698,3.3886992931365967
6.678615210950374,3.620434045791626
6.692620350420475,3.80367112159729
6.582918091118335,3.76202392578125
6.488025896251202,3.53788685798645
6.392450425028801,3.049299478530884
6.365554252266884,2.9060709476470947
6.349253711104393,2.9630730152130127
6.272643703222275,3.043226957321167
6.1781053930521015,3.152040481567383
6.176427641510964,3.2325990200042725
6.258570997416973,3.3334224224090576
6.408060097694397,3.397496223449707
6.503000304102898,3.3042070865631104
6.389898347854614,3.095475435256958
6.249664594233036,2.878676414489746
6.21926336735487,2.759254217147827
6.219100818037987,2.9334380626678467
6.199135775864124,3.209634780883789
6.278370851278305,3.339506149291992
6.588494837284088,3.7470309734344482
6.359032471477986,3.613541841506958
6.201610054075718,3.417536973953247
6.23206891566515,3.254110336303711
6.195880132913589,3.1699609756469727
6.175766135752201,3.104811429977417
6.186898379027843,2.977590799331665
6.222226093709469,2.905792236328125
6.300846290588379,3.035334825515747
6.296147251129151,3.1118576526641846
6.259184807538986,3.1132261753082275
6.435146442055702,3.0747196674346924
6.511981129646301,3.1595277786254883
6.209145411849022,3.021636962890625
6.330705262720585,3.471893310546875
6.4615771651268,3.6452720165252686
6.454233720898628,3.4222161769866943
6.448687627911568,3.1367905139923096
6.4132836073637005,3.0148351192474365
6.400024253129959,3.2630975246429443
6.37776633054018,3.609379768371582
6.594313561916351,4.0256428718566895
6.40694327056408,3.654021978378296
6.248441833257675,3.2497894763946533
6.239143519103527,3.018505096435547
6.3237197026610374,2.9258244037628174
6.385927627980709,2.9927728176116943
6.350514654815197,2.9932119846343994
6.300317351520062,3.1301867961883545
6.393285153806209,3.3610646724700928
6.4870683521032335,3.45528244972229
6.447883416712284,3.352954626083374
6.296161717176437,3.0449492931365967
6.275079438090325,2.843851327896118
6.551281672716141,2.9673869609832764
6.352454426884651,2.8529326915740967
6.265502750873566,2.983478546142578
6.418618169426918,3.3007209300994873
6.601789861917496,3.593644857406616
6.671027258038521,3.637542724609375
6.567440149188042,3.442373037338257
6.418831744790078,3.1885900497436523
6.467947109043598,3.0901107788085938
6.552789737284184,3.0317208766937256
6.327293400466442,2.7515361309051514
6.377250182628631,2.8171730041503906
6.373423536121845,2.7835655212402344
6.35438574552536,2.63236665725708
6.430697439610958,2.74190354347229
6.614288526773453,3.142169237136841
6.507530814409256,3.315601348876953
6.281417219340801,3.294044256210327
6.472015365958214,3.348834276199341
6.3730826616287235,3.1197822093963623
6.34314486682415,3.0003814697265625
6.307614651322365,3.0448954105377197
6.242052043974399,3.0512731075286865
6.150794209539891,2.887014150619507
6.145159640908242,2.8572633266448975
6.154886868596077,2.829273223876953
6.190626935660839,2.8482513427734375
6.239583420753479,2.8391497135162354
6.2621705532073975,2.7460577487945557
6.239993631839752,2.641610860824585
6.203246133029461,2.718189001083374
6.205257028341293,2.8443877696990967
6.269011679291725,2.9483330249786377
6.18849213719368,2.8668267726898193
6.139971582591533,2.8529322147369385
6.157391925156117,2.8577206134796143
6.179032051563263,2.8818702697753906
6.14388283342123,2.900960683822632
6.152352699637413,2.867528200149536
6.121949563920498,2.937894821166992
6.107140292227268,2.9254119396209717
6.113108398020268,3.0379889011383057
6.103167742490768,3.044722318649292
6.140645930171013,3.080479383468628
6.1481204479932785,3.098595380783081
6.04929027557373,2.924807548522949
6.098204576969147,2.909679412841797
6.061487989127636,2.8549811840057373
6.057071512937545,2.732434034347534
6.1611995726823805,2.667276620864868
6.2807326599955555,2.6743290424346924
6.3478469282388685,2.8903796672821045
6.279494743049145,3.106111526489258
6.18809399753809,3.04913067817688
6.128254558146,2.865964651107788
6.122367976605892,2.7329890727996826
6.19348435997963,2.6771953105926514
6.2640579953789715,2.611462116241455
6.2083354741334915,2.5614473819732666
6.187533317506313,2.5032665729522705
6.208368982374668,2.5122530460357666
6.175296953320503,2.732961416244507
6.126382514834404,2.87629771232605
6.11837969571352,2.92120099067688
6.127298487722873,2.9304096698760986
6.123217517137528,2.8681552410125732
6.1608457759022714,2.9140126705169678
6.153100414574146,2.995640754699707
6.133508299291134,3.004753351211548
6.089897592365742,2.7896759510040283
6.354330384731293,2.8245279788970947
6.45207157433033,3.2023391723632812
6.566791148483754,3.4659948348999023
6.582492588460445,3.620591163635254
6.4706155270338055,3.5331859588623047
6.38477084338665,3.2760801315307617
6.304363939166069,2.812664270401001
6.275222712755204,2.7259521484375
6.244270581007004,2.8068621158599854
