Name: SNETNORM_Adam_L1LOSS_400EX_B1_DILATFLOWNET3_LR_00001
Epocs: 7
Batches: 320
Learning Rate: 1e-05
Date: 2019-07-09-23-37-01
train test 
7.533584866393357,6.447058744728565
7.5202607467770575,6.446893510222435
7.467731080763042,6.457784222066403
7.509927493147552,6.542475454509258
7.446210991591215,6.466820099949837
7.4556419280357655,6.418281626701355
7.436231805570424,6.45229867324233
7.4427385395392776,6.455325444787741
7.443917132727802,6.428791383653879
7.44200454633683,6.454484923928976
7.446597715746611,6.486360770463944
7.439048030972481,6.434669430553913
7.445101975183934,6.448685684800148
7.454055046848953,6.460499666631222
7.465270088147372,6.470743959397078
7.440864126291126,6.468242295831442
7.44642624873668,6.508313695341348
7.43361099967733,6.461416258662939
7.443156650662422,6.421685639768839
7.432664034608751,6.441896481812
7.4337725499644876,6.454214863479137
7.433789627626538,6.433514777570963
7.435238959547132,6.435681261867285
7.433669680915773,6.455177791416645
7.432283574249595,6.429634420573711
7.436673068348318,6.437651482224465
7.443669493123889,6.445465739071369
7.4520096429158,6.452125094085932
7.432967664208263,6.452509173750878
7.435460525099188,6.484956225007773
7.42902378346771,6.4600876368582245
7.435100894514472,6.42410534247756
7.427711884398013,6.444767951965332
7.428366150334478,6.452115049213171
7.4283747931942345,6.431587497889995
7.429669713042676,6.433243987709284
7.427979874517769,6.451515144109726
7.425663873087615,6.427163907140494
7.429422058910132,6.4330087073147295
7.437484796764329,6.440669768303633
7.445605479739607,6.446408315002918
7.423920301441103,6.445956932753324
7.43762487359345,6.504136470705271
7.420877380855382,6.454021663963795
7.423360561579466,6.417806993424892
7.416043467167765,6.438343390822411
7.416637551225722,6.447217378765345
7.413731796294451,6.420275837182999
7.419797164667398,6.4241713277995585
7.416062191314995,6.440835631638765
7.412375423219055,6.416199848800898
7.4108951522037385,6.419423236697912
7.426926657231524,6.430854806303978
7.437694587279111,6.439378217607737
7.399664726108313,6.4323929913342
7.417277877219021,6.487860562652349
7.398386981524527,6.432357282936573
7.4022095337510105,6.397538392245769
7.388674194272608,6.4210809879004955
7.416957588493824,6.472913436591625
7.383333995938301,6.392399264127016
7.397314568609,6.4095691502094265
7.3903912687674165,6.429892729967833
7.377308193780482,6.389756239950657
7.36875125495717,6.390140902996063
7.391786612849683,6.412110582739115
7.388985861092806,6.410765873640775
7.348330857791007,6.391182056814432
7.361571324616671,6.4410839907824995
7.344911313708872,6.3891856461763386
7.346226514782757,6.354595669358969
7.336383448168635,6.4322900995612144
7.379643267951906,6.443894313275814
7.334261338878423,6.3494757153093815
7.337395918555558,6.377953678369522
7.338138027116656,6.417296041548252
7.309393975231797,6.336537704616785
7.297233108151704,6.341854363679886
7.328844122122973,6.37106114923954
7.307219694647938,6.3431297689676285
7.274110710993409,6.340686751902103
7.279881461150945,6.369713108986616
7.275468562636524,6.339617396146059
7.267344726063311,6.297449193894863
7.292167308181524,6.445519958436489
7.3247358072549105,6.398787277191877
7.269868873152882,6.295259817689657
7.250090653821826,6.310975230485201
7.2588140306063,6.35561885908246
7.2402224955148995,6.282132271677256
7.214120218530297,6.285183668881655
7.25241117971018,6.304952299594879
