Name: SNET2_debugK1x10_200
Epocs: 50
Batches: 720
Learning Rate: 1e-05
Date: 2019-03-01-02-46-18
train test 
31.9729809218,30.6897176027
11.3972341972,10.0843887955
11.2875061797,9.96431766748
11.2350630682,9.87673870325
11.1738894204,9.79422833622
11.1655102746,9.7749089472
11.1158471074,9.72283167839
11.0996156758,9.7157348536
11.0887300489,9.70554870814
11.1071849115,9.71858350113
11.0712595423,9.67689508274
11.0541260502,9.64723404273
11.0579994638,9.68167995885
11.074686344,9.70051429942
11.0781512869,9.7049922891
11.0629349602,9.68986523971
11.042388358,9.65376750156
11.0079222302,9.68704916313
10.989407851,9.67913090438
10.9729389802,9.66117028892
10.959916661,9.62248067856
10.9290557857,9.61242904216
10.9095155434,9.59450420961
10.8892537388,9.60819991007
10.8783235946,9.59329988584
10.8588788432,9.56640421078
10.8879403854,9.62431974784
10.8748159254,9.62347037643
10.8547296015,9.5892612502
10.8525852361,9.59965157211
10.8603546302,9.60705268756
10.8610750664,9.62229865044
10.8424689759,9.63048872277
10.8127463401,9.61119254306
10.7970053092,9.58052630201
10.8293375012,9.61627411991
10.7962609652,9.59101226032
10.7926349785,9.60272461101
10.7723245218,9.60243917406
10.7799758673,9.63621126264
10.7767752801,9.61787434369
10.7762230953,9.61297073439
10.7622474503,9.57714456916
10.7579330653,9.60455820858
10.7690893217,9.63128197268
10.7787715874,9.61351329833
10.7580581487,9.60775819346
10.7502660938,9.60178411752
10.7447797002,9.59289755374
10.7426966875,9.61602674425
10.7451592872,9.58819621876
